-------------------------------------------------------------------------------
Test set: com.inin.exampleService.controller.HealthCheckControllerTest
-------------------------------------------------------------------------------
Tests run: 1, Failures: 0, Errors: 0, Skipped: 0, Time elapsed: 0.199 sec - in com.inin.exampleService.controller.HealthCheckControllerTest
