{
    "$schema": "http://json-schema.org/draft-04/schema#",
    "title": "ErrorInfo",
    "type": "object",
    "description": "Error information that the Public API will receive in a response body. This allows backend services to pass an error message to consumers of the Public API.",
    "properties": {
        "errorCode": {
            "description": "A code unique to this error. Typically prefixed with the service that originated the error. For example CONFIG_USER_NOT_FOUND",
            "type": "string",
            "required": false
        },
        "status": {
            "description": "The HTTP status code for this message. If left blank the status code from the HTTP response is used.",
            "type": "integer",
            "required": false
        },
        "userMessage": {
            "description": "A customer friendly message. This should be a complete sentence, use proper grammar and only include information useful to a customer. This is not a dev message and should not include things like Org Id",
            "type": "string",
            "required": false
        },
        "userParamsMessage": {
            "description": "This is the same as userMessage except it uses template fields for variable replacement. For instance: 'User {username} was not found'",
            "type": "string",
            "required": false
        },
        "userParams": {
            "description": "Used in conjunction with userParamsMessage. These are the template parameters. For instance: UserParam.key = 'username', UserParam.value = 'chuck.pulfer'",
            "type": "array",
            "items": {
                "$ref": "UserParam.json"
            }
        }
    }
}